{"count":9673,"next":"https://api.rawg.io/api/tags?key=a8befb20f4194f96a61584b8e1bc8ae1&page=2","previous":null,"results":[{"id":31,"name":"Singleplayer","slug":"singleplayer","games_count":227137,"image_background":"https://media.rawg.io/media/games/587/587588c64afbff80e6f444eb2e46f9da.jpg","language":"eng","games":[{"id":3498,"slug":"grand-theft-auto-v","name":"Grand Theft Auto V","added":21122},{"id":3328,"slug":"the-witcher-3-wild-hunt","name":"The Witcher 3: Wild Hunt","added":20605},{"id":4200,"slug":"portal-2","name":"Portal 2","added":19489},{"id":5286,"slug":"tomb-raider","name":"Tomb Raider (2013)","added":16785},{"id":13536,"slug":"portal","name":"Portal","added":16589},{"id":12020,"slug":"left-4-dead-2","name":"Left 4 Dead 2","added":16473}]},{"id":40847,"name":"Steam Achievements","slug":"steam-achievements","games_count":39497,"image_background":"https://media.rawg.io/media/games/d82/d82990b9c67ba0d2d09d4e6fa88885a7.jpg","language":"eng","games":[{"id":3498,"slug":"grand-theft-auto-v","name":"Grand Theft Auto V","added":21122},{"id":4200,"slug":"portal-2","name":"Portal 2","added":19489},{"id":4291,"slug":"counter-strike-global-offensive","name":"Counter-Strike: Global Offensive","added":17175},{"id":13536,"slug":"portal","name":"Portal","added":16589},{"id":12020,"slug":"left-4-dead-2","name":"Left 4 Dead 2","added":16473},{"id":5679,"slug":"the-elder-scrolls-v-skyrim","name":"The Elder Scrolls V: Skyrim","added":15907}]},{"id":7,"name":"Multiplayer","slug":"multiplayer","games_count":38598,"image_background":"https://media.rawg.io/media/games/b7b/b7b8381707152afc7d91f5d95de70e39.jpg","language":"eng","games":[{"id":3498,"slug":"grand-theft-auto-v","name":"Grand Theft Auto V","added":21122},{"id":4200,"slug":"portal-2","name":"Portal 2","added":19489},{"id":4291,"slug":"counter-strike-global-offensive","name":"Counter-Strike: Global Offensive","added":17175},{"id":5286,"slug":"tomb-raider","name":"Tomb Raider (2013)","added":16785},{"id":12020,"slug":"left-4-dead-2","name":"Left 4 Dead 2","added":16473},{"id":28,"slug":"red-dead-redemption-2","name":"Red Dead Redemption 2","added":15552}]},{"id":40836,"name":"Full controller support","slug":"full-controller-support","games_count":18760,"image_background":"https://media.rawg.io/media/games/157/15742f2f67eacff546738e1ab5c19d20.jpg","language":"eng","games":[{"id":3498,"slug":"grand-theft-auto-v","name":"Grand Theft Auto V","added":21122},{"id":3328,"slug":"the-witcher-3-wild-hunt","name":"The Witcher 3: Wild Hunt","added":20605},{"id":4200,"slug":"portal-2","name":"Portal 2","added":19489},{"id":4291,"slug":"counter-strike-global-offensive","name":"Counter-Strike: Global Offensive","added":17175},{"id":5286,"slug":"tomb-raider","name":"Tomb Raider (2013)","added":16785},{"id":12020,"slug":"left-4-dead-2","name":"Left 4 Dead 2","added":16473}]},{"id":40849,"name":"Steam Cloud","slug":"steam-cloud","games_count":18775,"image_background":"https://media.rawg.io/media/games/8cc/8cce7c0e99dcc43d66c8efd42f9d03e3.jpg","language":"eng","games":[{"id":4200,"slug":"portal-2","name":"Portal 2","added":19489},{"id":12020,"slug":"left-4-dead-2","name":"Left 4 Dead 2","added":16473},{"id":5679,"slug":"the-elder-scrolls-v-skyrim","name":"The Elder Scrolls V: Skyrim","added":15907},{"id":4062,"slug":"bioshock-infinite","name":"BioShock Infinite","added":15359},{"id":802,"slug":"borderlands-2","name":"Borderlands 2","added":15182},{"id":13537,"slug":"half-life-2","name":"Half-Life 2","added":14722}]},{"id":13,"name":"Atmospheric","slug":"atmospheric","games_count":34084,"image_background":"https://media.rawg.io/media/games/fc1/fc1307a2774506b5bd65d7e8424664a7.jpg","language":"eng","games":[{"id":3498,"slug":"grand-theft-auto-v","name":"Grand Theft Auto V","added":21122},{"id":3328,"slug":"the-witcher-3-wild-hunt","name":"The Witcher 3: Wild Hunt","added":20605},{"id":4200,"slug":"portal-2","name":"Portal 2","added":19489},{"id":5286,"slug":"tomb-raider","name":"Tomb Raider (2013)","added":16785},{"id":13536,"slug":"portal","name":"Portal","added":16589},{"id":5679,"slug":"the-elder-scrolls-v-skyrim","name":"The Elder Scrolls V: Skyrim","added":15907}]},{"id":7808,"name":"steam-trading-cards","slug":"steam-trading-cards","games_count":7569,"image_background":"https://media.rawg.io/media/games/490/49016e06ae2103881ff6373248843069.jpg","language":"eng","games":[{"id":4200,"slug":"portal-2","name":"Portal 2","added":19489},{"id":4291,"slug":"counter-strike-global-offensive","name":"Counter-Strike: Global Offensive","added":17175},{"id":12020,"slug":"left-4-dead-2","name":"Left 4 Dead 2","added":16473},{"id":5679,"slug":"the-elder-scrolls-v-skyrim","name":"The Elder Scrolls V: Skyrim","added":15907},{"id":4062,"slug":"bioshock-infinite","name":"BioShock Infinite","added":15359},{"id":3439,"slug":"life-is-strange-episode-1-2","name":"Life is Strange","added":15188}]},{"id":42,"name":"Great Soundtrack","slug":"great-soundtrack","games_count":3406,"image_background":"https://media.rawg.io/media/games/8a0/8a02f84a5916ede2f923b88d5f8217ba.jpg","language":"eng","games":[{"id":3498,"slug":"grand-theft-auto-v","name":"Grand Theft Auto V","added":21122},{"id":3328,"slug":"the-witcher-3-wild-hunt","name":"The Witcher 3: Wild Hunt","added":20605},{"id":13536,"slug":"portal","name":"Portal","added":16589},{"id":5679,"slug":"the-elder-scrolls-v-skyrim","name":"The Elder Scrolls V: Skyrim","added":15907},{"id":28,"slug":"red-dead-redemption-2","name":"Red Dead Redemption 2","added":15552},{"id":4062,"slug":"bioshock-infinite","name":"BioShock Infinite","added":15359}]},{"id":24,"name":"RPG","slug":"rpg","games_count":21742,"image_background":"https://media.rawg.io/media/games/49c/49c3dfa4ce2f6f140cc4825868e858cb.jpg","language":"eng","games":[{"id":3498,"slug":"grand-theft-auto-v","name":"Grand Theft Auto V","added":21122},{"id":3328,"slug":"the-witcher-3-wild-hunt","name":"The Witcher 3: Wild Hunt","added":20605},{"id":5286,"slug":"tomb-raider","name":"Tomb Raider (2013)","added":16785},{"id":5679,"slug":"the-elder-scrolls-v-skyrim","name":"The Elder Scrolls V: Skyrim","added":15907},{"id":4062,"slug":"bioshock-infinite","name":"BioShock Infinite","added":15359},{"id":802,"slug":"borderlands-2","name":"Borderlands 2","added":15182}]},{"id":18,"name":"Co-op","slug":"co-op","games_count":11948,"image_background":"https://media.rawg.io/media/games/0bd/0bd5646a3d8ee0ac3314bced91ea306d.jpg","language":"eng","games":[{"id":3498,"slug":"grand-theft-auto-v","name":"Grand Theft Auto V","added":21122},{"id":4200,"slug":"portal-2","name":"Portal 2","added":19489},{"id":4291,"slug":"counter-strike-global-offensive","name":"Counter-Strike: Global Offensive","added":17175},{"id":12020,"slug":"left-4-dead-2","name":"Left 4 Dead 2","added":16473},{"id":28,"slug":"red-dead-redemption-2","name":"Red Dead Redemption 2","added":15552},{"id":802,"slug":"borderlands-2","name":"Borderlands 2","added":15182}]}]}