{"count":5714,"next":"https://api.rawg.io/api/games?dates=2023-08-30%2C2024-08-30&genres=action&key=a8befb20f4194f96a61584b8e1bc8ae1&ordering=updated&page=2&page_size=5&platforms=4%2C187%2C186%2C7","previous":null,"results":[{"slug":"memory-trees-forget-me-not-2","name":"Memory Trees: forget me not","playtime":0,"platforms":[{"platform":{"id":4,"name":"PC","slug":"pc"}}],"stores":[{"store":{"id":1,"name":"Steam","slug":"steam"}}],"released":"2024-02-15","tba":false,"background_image":"https://media.rawg.io/media/screenshots/66e/66e8357d7200a2f33ecb860d0dd8b847.jpg","rating":0.0,"rating_top":0,"ratings":[],"ratings_count":0,"reviews_text_count":0,"added":2,"added_by_status":{"toplay":2},"metacritic":null,"suggestions_count":286,"updated":"2019-08-28T21:47:24","id":302877,"score":null,"clip":null,"tags":[{"id":31,"name":"Singleplayer","slug":"singleplayer","language":"eng","games_count":207792,"image_background":"https://media.rawg.io/media/games/34b/34b1f1850a1c06fd971bc6ab3ac0ce0e.jpg"},{"id":42417,"name":"Экшен","slug":"ekshen","language":"rus","games_count":32980,"image_background":"https://media.rawg.io/media/games/021/021c4e21a1824d2526f925eff6324653.jpg"},{"id":42392,"name":"Приключение","slug":"prikliuchenie","language":"rus","games_count":30905,"image_background":"https://media.rawg.io/media/games/618/618c2031a07bbff6b4f611f10b6bcdbc.jpg"},{"id":42398,"name":"Инди","slug":"indi-2","language":"rus","games_count":46796,"image_background":"https://media.rawg.io/media/games/6a2/6a2e48933245e2cd3c92248c75c925e1.jpg"},{"id":24,"name":"RPG","slug":"rpg","language":"eng","games_count":17681,"image_background":"https://media.rawg.io/media/games/4be/4be6a6ad0364751a96229c56bf69be59.jpg"},{"id":42412,"name":"Ролевая игра","slug":"rolevaia-igra","language":"rus","games_count":14090,"image_background":"https://media.rawg.io/media/games/e6d/e6de699bd788497f4b52e2f41f9698f2.jpg"},{"id":40845,"name":"Partial Controller Support","slug":"partial-controller-support","language":"eng","games_count":10024,"image_background":"https://media.rawg.io/media/games/4a0/4a0a1316102366260e6f38fd2a9cfdce.jpg"},{"id":42413,"name":"Симулятор","slug":"simuliator","language":"rus","games_count":15533,"image_background":"https://media.rawg.io/media/games/c22/c22d804ac753c72f2617b3708a625dec.jpg"},{"id":79,"name":"Free to Play","slug":"free-to-play","language":"eng","games_count":5566,"image_background":"https://media.rawg.io/media/games/58a/58ac7f6569259dcc0b60b921869b19fc.jpg"},{"id":42538,"name":"Бесплатная игра","slug":"besplatnaia-igra","language":"rus","games_count":5558,"image_background":"https://media.rawg.io/media/games/ec3/ec3a7db7b8ab5a71aad622fe7c62632f.jpg"},{"id":42406,"name":"Нагота","slug":"nagota","language":"rus","games_count":4749,"image_background":"https://media.rawg.io/media/games/26d/26d4437715bee60138dab4a7c8c59c92.jpg"},{"id":44,"name":"Nudity","slug":"nudity","language":"eng","games_count":5134,"image_background":"https://media.rawg.io/media/games/0af/0af85e8edddfa55368e47c539914a220.jpg"},{"id":42405,"name":"Сексуальный контент","slug":"seksualnyi-kontent","language":"rus","games_count":4742,"image_background":"https://media.rawg.io/media/games/eb5/eb514db62d397c64288160d5bd8fd67a.jpg"},{"id":50,"name":"Sexual Content","slug":"sexual-content","language":"eng","games_count":4764,"image_background":"https://media.rawg.io/media/games/d9e/d9e868382c48ec98c9b23b8fbe6a2045.jpg"}],"esrb_rating":{"id":5,"name":"Adults Only","slug":"adults-only","name_en":"Adults Only","name_ru":"Только для взрослых"},"user_game":null,"reviews_count":0,"community_rating":0,"saturated_color":"0f0f0f","dominant_color":"0f0f0f","short_screenshots":[{"id":-1,"image":"https://media.rawg.io/media/screenshots/66e/66e8357d7200a2f33ecb860d0dd8b847.jpg"},{"id":1873106,"image":"https://media.rawg.io/media/screenshots/61a/61a7993257a093463393ee7d420cf4c1.jpg"},{"id":1873107,"image":"https://media.rawg.io/media/screenshots/a8e/a8ee52cb36959bac08353be6642afb93.jpg"},{"id":1873108,"image":"https://media.rawg.io/media/screenshots/8dd/8dd1f381779b3f9b5185fb897820cdcf.jpg"},{"id":1873109,"image":"https://media.rawg.io/media/screenshots/f33/f330bad874131c5aa549e26613f11d11.jpg"},{"id":1873110,"image":"https://media.rawg.io/media/screenshots/66e/66e8357d7200a2f33ecb860d0dd8b847.jpg"}],"parent_platforms":[{"platform":{"id":1,"name":"PC","slug":"pc"}}],"genres":[{"id":3,"name":"Adventure","slug":"adventure"},{"id":4,"name":"Action","slug":"action"},{"id":5,"name":"RPG","slug":"role-playing-games-rpg"},{"id":14,"name":"Simulation","slug":"simulation"},{"id":51,"name":"Indie","slug":"indie"}]},{"slug":"rat-race-2","name":"RAT RACE","playtime":0,"platforms":[{"platform":{"id":4,"name":"PC","slug":"pc"}},{"platform":{"id":6,"name":"Linux","slug":"linux"}}],"stores":[{"store":{"id":1,"name":"Steam","slug":"steam"}}],"released":"2024-02-02","tba":true,"background_image":"https://media.rawg.io/media/screenshots/8f7/8f7a69d64cccc6488def83cf5ddb2774.jpg","rating":0.0,"rating_top":0,"ratings":[],"ratings_count":0,"reviews_text_count":0,"added":1,"added_by_status":{"owned":1},"metacritic":null,"suggestions_count":0,"updated":"2020-07-31T02:19:22","id":473530,"score":null,"clip":null,"tags":[],"esrb_rating":null,"user_game":null,"reviews_count":0,"community_rating":0,"saturated_color":"0f0f0f","dominant_color":"0f0f0f","short_screenshots":[],"parent_platforms":[{"platform":{"id":1,"name":"PC","slug":"pc"}},{"platform":{"id":6,"name":"Linux","slug":"linux"}}],"genres":[{"id":11,"name":"Arcade","slug":"arcade"},{"id":4,"name":"Action","slug":"action"}]},{"slug":"unbeatable-arcade-mix","name":"UNBEATABLE: ARCADE MIX","playtime":0,"platforms":[{"platform":{"id":4,"name":"PC","slug":"pc"}}],"stores":[{"store":{"id":9,"name":"itch.io","slug":"itch"}}],"released":"2023-12-30","tba":true,"background_image":"https://media.rawg.io/media/screenshots/b05/b05531b415e12177769ae07117813981.jpg","rating":0.0,"rating_top":0,"ratings":[],"ratings_count":0,"reviews_text_count":0,"added":4,"added_by_status":{"toplay":4},"metacritic":null,"suggestions_count":166,"updated":"2021-06-11T05:28:04","id":583306,"score":null,"clip":null,"tags":[{"id":45,"name":"2D","slug":"2d","language":"eng","games_count":195697,"image_background":"https://media.rawg.io/media/games/d1a/d1a1202a378607b6c635c8f18ace95dd.jpg"},{"id":136,"name":"Music","slug":"music","language":"eng","games_count":25991,"image_background":"https://media.rawg.io/media/games/baf/baf9905270314e07e6850cffdb51df41.jpg"},{"id":96,"name":"Kickstarter","slug":"kickstarter","language":"eng","games_count":592,"image_background":"https://media.rawg.io/media/games/87a/87a29bcc56b6b6082ead1dd5e2510aaa.jpg"},{"id":63595,"name":"rhythm-adventure","slug":"rhythm-adventure","language":"eng","games_count":1,"image_background":"https://media.rawg.io/media/screenshots/b05/b05531b415e12177769ae07117813981.jpg"}],"esrb_rating":null,"user_game":null,"reviews_count":0,"community_rating":0,"saturated_color":"0f0f0f","dominant_color":"0f0f0f","short_screenshots":[{"id":-1,"image":"https://media.rawg.io/media/screenshots/b05/b05531b415e12177769ae07117813981.jpg"},{"id":2788952,"image":"https://media.rawg.io/media/screenshots/ad7/ad7fb3d149176ee8e7edc085e733f67f.jpg"},{"id":2788953,"image":"https://media.rawg.io/media/screenshots/39e/39e639ce23bdfa65c10d92070053a6b0.jpg"},{"id":2788954,"image":"https://media.rawg.io/media/screenshots/9ed/9ed50679b7997f4dbdbeb45cb7f218b9.jpg"},{"id":2788955,"image":"https://media.rawg.io/media/screenshots/150/15026a3715a117de70cf4e2afc608d15.jpg"},{"id":2788956,"image":"https://media.rawg.io/media/screenshots/b05/b05531b415e12177769ae07117813981.jpg"}],"parent_platforms":[{"platform":{"id":1,"name":"PC","slug":"pc"}}],"genres":[{"id":4,"name":"Action","slug":"action"}]},{"slug":"redemption-of-the-damned","name":"Redemption of the Damned","playtime":0,"platforms":[{"platform":{"id":4,"name":"PC","slug":"pc"}},{"platform":{"id":18,"name":"PlayStation 4","slug":"playstation4"}}],"stores":[{"store":{"id":1,"name":"Steam","slug":"steam"}}],"released":"2023-12-01","tba":false,"background_image":"https://media.rawg.io/media/screenshots/67c/67c833faa386a748f3f27115fadd8a9c.jpg","rating":0.0,"rating_top":0,"ratings":[],"ratings_count":0,"reviews_text_count":0,"added":3,"added_by_status":{"owned":1,"toplay":2},"metacritic":null,"suggestions_count":235,"updated":"2022-07-14T11:58:52","id":816341,"score":null,"clip":null,"tags":[{"id":24,"name":"RPG","slug":"rpg","language":"eng","games_count":19144,"image_background":"https://media.rawg.io/media/games/15c/15c95a4915f88a3e89c821526afe05fc.jpg"},{"id":16,"name":"Horror","slug":"horror","language":"eng","games_count":43052,"image_background":"https://media.rawg.io/media/games/b54/b54598d1d5cc31899f4f0a7e3122a7b0.jpg"},{"id":1,"name":"Survival","slug":"survival","language":"eng","games_count":7943,"image_background":"https://media.rawg.io/media/games/9c4/9c47f320eb73c9a02d462e12f6206b26.jpg"},{"id":259,"name":"Metroidvania","slug":"metroidvania","language":"eng","games_count":4183,"image_background":"https://media.rawg.io/media/screenshots/2ff/2ffe731b3388bd795f94c38e9afed60f.jpg"},{"id":54225,"name":"resident evil","slug":"resident-evil-2","language":"eng","games_count":2,"image_background":"https://media.rawg.io/media/screenshots/67c/67c833faa386a748f3f27115fadd8a9c.jpg"},{"id":2221,"name":"diablo","slug":"diablo","language":"eng","games_count":30,"image_background":"https://media.rawg.io/media/screenshots/a98/a9806d05019784b2213485381a8c4950.jpg"}],"esrb_rating":null,"user_game":null,"reviews_count":0,"community_rating":0,"saturated_color":"0f0f0f","dominant_color":"0f0f0f","short_screenshots":[{"id":-1,"image":"https://media.rawg.io/media/screenshots/67c/67c833faa386a748f3f27115fadd8a9c.jpg"},{"id":3462666,"image":"https://media.rawg.io/media/screenshots/43f/43f118c01b735a94cd457693c5156df7.jpg"},{"id":3462667,"image":"https://media.rawg.io/media/screenshots/7f2/7f2581dca03bbdc5ce878964f9eda737.jpg"},{"id":3462668,"image":"https://media.rawg.io/media/screenshots/374/37471d5fff418eee33c3fa8ef3cd59e6.jpg"},{"id":3462669,"image":"https://media.rawg.io/media/screenshots/67c/67c833faa386a748f3f27115fadd8a9c.jpg"}],"parent_platforms":[{"platform":{"id":1,"name":"PC","slug":"pc"}},{"platform":{"id":2,"name":"PlayStation","slug":"playstation"}}],"genres":[{"id":2,"name":"Shooter","slug":"shooter"},{"id":4,"name":"Action","slug":"action"},{"id":6,"name":"Fighting","slug":"fighting"}]},{"slug":"unknown-carnivores-dinosaur-hunt-sequel","name":"Unknown Carnivores Dinosaur Hunt Sequel","playtime":0,"platforms":[{"platform":{"id":4,"name":"PC","slug":"pc"}}],"stores":null,"released":"2023-09-01","tba":false,"background_image":null,"rating":0.0,"rating_top":0,"ratings":[],"ratings_count":0,"reviews_text_count":0,"added":0,"added_by_status":null,"metacritic":null,"suggestions_count":0,"updated":"2022-07-24T10:12:28","id":825322,"score":null,"clip":null,"tags":null,"esrb_rating":null,"user_game":null,"reviews_count":0,"community_rating":0,"saturated_color":"0f0f0f","dominant_color":"0f0f0f","short_screenshots":null,"parent_platforms":[{"platform":{"id":1,"name":"PC","slug":"pc"}}],"genres":[{"id":51,"name":"Indie","slug":"indie"},{"id":4,"name":"Action","slug":"action"}]}],"user_platforms":false}