{"count":49,"next":"https://api.rawg.io/api/games/the-witcher-3-wild-hunt/achievements?key=a8befb20f4194f96a61584b8e1bc8ae1&page=2","previous":null,"results":[{"id":162470,"name":"The Limits of the Possible","description":"Collect all trophies.","image":"https://media.rawg.io/media/achievements/7c7/7c75d8755d93f4acbde15d052b96534d.jpg","percent":"3.12"},{"id":167134,"name":"That Is the Evilest Thing…","description":"Ignite the gas produced by a Dragon's Dream bomb using a burning opponent. Do this 10 times.","image":"https://media.rawg.io/media/achievements/f06/f06f572a1bfabd3347cfb31ed729d498.jpg","percent":"5.97"},{"id":177407,"name":"That Is the Evilest Thing","description":"Ignite the gas produced by a Dragon's Dream bomb using a burning opponent. Do this 10 times.","image":"https://media.rawg.io/media/achievements/164/1644c71b90efb9d90b40c95242d1e527.jpg","percent":"8.04"},{"id":126805,"name":"Master Marksman","description":"Kill 50 human and nonhuman opponents by striking them in the head with a crossbow bolt.","image":"https://media.rawg.io/media/achievements/233/23314da942731f8ce34378917a703aaf.jpg","percent":"9.14"},{"id":135938,"name":"Kling of the Clink","description":"Serve time in Toussaint.","image":"https://media.rawg.io/media/achievements/fe1/fe1f40abaa5d0b82ed2d5c761f20a1ea.jpg","percent":"9.36"},{"id":140770,"name":"I Wore Ofieri Before It Was Cool","description":"Collect all available Ofieri armor and horse gear, and at least one Ofieri sword.","image":"https://media.rawg.io/media/achievements/925/9255dcf348e803736db894718fef4d7f.jpg","percent":"10.06"},{"id":148021,"name":"Humpty Dumpty","description":"Kill 10 opponents by knocking them off somewhere high with the Aard Sign.","image":"https://media.rawg.io/media/achievements/f5f/f5f07f4e476091783e36b5b10e6d272f.jpg","percent":"11.02"},{"id":140771,"name":"Overkill","description":"Make an opponent suffer from bleeding, poisoning and burning simultaneously. Do this 10 times.","image":"https://media.rawg.io/media/achievements/804/804a4a18db68d27011945cfef90978e4.jpg","percent":"12.25"},{"id":152158,"name":"Return to Sender","description":"Kill 3 opponents with their own arrows.","image":"https://media.rawg.io/media/achievements/06a/06adaeba628be4c589fa55053a6abcdb.jpg","percent":"12.50"},{"id":152157,"name":"Can Quit Anytime I Want","description":"Be under the influence of seven potions or decoctions at the same time.","image":"https://media.rawg.io/media/achievements/a85/a85825ad322b6f436c9cdc3b4f1773b8.jpg","percent":"13.08"}]}